error[E0277]: the trait bound `String: Transformable` is not satisfied
 --> tests/ui/transformable/wrong_type.rs:6:5
  |
6 |     transform: String,
  |     ^^^^^^^^^^^^^^^^^ the trait `Transformable` is not implemented for `String`
  |
  = help: the following other types implement trait `Transformable`:
            Shape
            Transform
  = help: see issue #48214
help: add `#![feature(trivial_bounds)]` to the crate attributes to enable
  |
1 + #![feature(trivial_bounds)]
  |

error[E0599]: no method named `translate` found for struct `String` in the current scope
 --> tests/ui/transformable/wrong_type.rs:3:10
  |
3 | #[derive(Transformable)]
  |          ^^^^^^^^^^^^^
  |
  = note: this error originates in the derive macro `Transformable` (in Nightly builds, run with -Z macro-backtrace for more info)

error[E0599]: no method named `rotate` found for struct `String` in the current scope
 --> tests/ui/transformable/wrong_type.rs:3:10
  |
3 | #[derive(Transformable)]
  |          ^^^^^^^^^^^^^ method not found in `String`
  |
  = note: this error originates in the derive macro `Transformable` (in Nightly builds, run with -Z macro-backtrace for more info)

error[E0599]: no method named `rotate_x` found for struct `String` in the current scope
 --> tests/ui/transformable/wrong_type.rs:3:10
  |
3 | #[derive(Transformable)]
  |          ^^^^^^^^^^^^^ method not found in `String`
  |
  = note: this error originates in the derive macro `Transformable` (in Nightly builds, run with -Z macro-backtrace for more info)

error[E0599]: no method named `rotate_y` found for struct `String` in the current scope
 --> tests/ui/transformable/wrong_type.rs:3:10
  |
3 | #[derive(Transformable)]
  |          ^^^^^^^^^^^^^ method not found in `String`
  |
  = note: this error originates in the derive macro `Transformable` (in Nightly builds, run with -Z macro-backtrace for more info)

error[E0599]: no method named `rotate_z` found for struct `String` in the current scope
 --> tests/ui/transformable/wrong_type.rs:3:10
  |
3 | #[derive(Transformable)]
  |          ^^^^^^^^^^^^^ method not found in `String`
  |
  = note: this error originates in the derive macro `Transformable` (in Nightly builds, run with -Z macro-backtrace for more info)

error[E0599]: no method named `scale_x` found for struct `String` in the current scope
 --> tests/ui/transformable/wrong_type.rs:3:10
  |
3 | #[derive(Transformable)]
  |          ^^^^^^^^^^^^^ method not found in `String`
  |
  = note: this error originates in the derive macro `Transformable` (in Nightly builds, run with -Z macro-backtrace for more info)

error[E0599]: no method named `scale_y` found for struct `String` in the current scope
 --> tests/ui/transformable/wrong_type.rs:3:10
  |
3 | #[derive(Transformable)]
  |          ^^^^^^^^^^^^^ method not found in `String`
  |
  = note: this error originates in the derive macro `Transformable` (in Nightly builds, run with -Z macro-backtrace for more info)

error[E0599]: no method named `scale_z` found for struct `String` in the current scope
 --> tests/ui/transformable/wrong_type.rs:3:10
  |
3 | #[derive(Transformable)]
  |          ^^^^^^^^^^^^^ method not found in `String`
  |
  = note: this error originates in the derive macro `Transformable` (in Nightly builds, run with -Z macro-backtrace for more info)

error[E0599]: no method named `scale_xyz` found for struct `String` in the current scope
 --> tests/ui/transformable/wrong_type.rs:3:10
  |
3 | #[derive(Transformable)]
  |          ^^^^^^^^^^^^^ method not found in `String`
  |
  = note: this error originates in the derive macro `Transformable` (in Nightly builds, run with -Z macro-backtrace for more info)

error[E0599]: no method named `scale` found for struct `String` in the current scope
 --> tests/ui/transformable/wrong_type.rs:3:10
  |
3 | #[derive(Transformable)]
  |          ^^^^^^^^^^^^^ method not found in `String`
  |
  = note: this error originates in the derive macro `Transformable` (in Nightly builds, run with -Z macro-backtrace for more info)

error[E0599]: no method named `look_at` found for struct `String` in the current scope
 --> tests/ui/transformable/wrong_type.rs:3:10
  |
3 | #[derive(Transformable)]
  |          ^^^^^^^^^^^^^ method not found in `String`
  |
  = note: this error originates in the derive macro `Transformable` (in Nightly builds, run with -Z macro-backtrace for more info)
