error[E0308]: mismatched types
 --> tests/ui/render_pass_data/wrong_type.rs:9:5
  |
9 |     samples: String,
  |     ^^^^^^^
  |     |
  |     expected `usize`, found `String`
  |     expected `usize` because of return type

error[E0308]: mismatched types
  --> tests/ui/render_pass_data/wrong_type.rs:11:5
   |
11 |     image: String,
   |     ^^^^^
   |     |
   |     expected `&Image`, found `&String`
   |     expected `&Image` because of return type
   |
   = note: expected reference `&Image`
              found reference `&String`

error[E0308]: mismatched types
  --> tests/ui/render_pass_data/wrong_type.rs:11:5
   |
11 |     image: String,
   |     ^^^^^
   |     |
   |     expected `&mut Image`, found `&mut String`
   |     expected `&mut Image` because of return type
   |
   = note: expected mutable reference `&mut Image`
              found mutable reference `&mut String`
